^C:\USERS\SEAN GARAY\SOURCE\REPOS\BASPROG2 POKESIM\BASPROG2 POKESIM\PLAYER.CPP
/c /ZI /JMC /nologo /W3 /WX- /diagnostics:classic /sdl /Od /Oy- /D _MBCS /Gm- /EHsc /RTC1 /MDd /GS /fp:precise /permissive- /Zc:wchar_t /Zc:forScope /Zc:inline /Fo"DEBUG\\" /Fd"DEBUG\VC141.PDB" /Gd /TP /analyze- /FC C:\USERS\SEAN GARAY\SOURCE\REPOS\BASPROG2 POKESIM\BASPROG2 POKESIM\PLAYER.CPP
^C:\USERS\SEAN GARAY\SOURCE\REPOS\BASPROG2 POKESIM\BASPROG2 POKESIM\POKEMON.CPP
/c /ZI /JMC /nologo /W3 /WX- /diagnostics:classic /sdl /Od /Oy- /D _MBCS /Gm- /EHsc /RTC1 /MDd /GS /fp:precise /permissive- /Zc:wchar_t /Zc:forScope /Zc:inline /Fo"DEBUG\\" /Fd"DEBUG\VC141.PDB" /Gd /TP /analyze- /FC C:\USERS\SEAN GARAY\SOURCE\REPOS\BASPROG2 POKESIM\BASPROG2 POKESIM\POKEMON.CPP
^C:\USERS\SEAN GARAY\SOURCE\REPOS\BASPROG2 POKESIM\BASPROG2 POKESIM\MAIN.CPP
/c /ZI /JMC /nologo /W3 /WX- /diagnostics:classic /sdl /Od /Oy- /D _MBCS /Gm- /EHsc /RTC1 /MDd /GS /fp:precise /permissive- /Zc:wchar_t /Zc:forScope /Zc:inline /Fo"DEBUG\\" /Fd"DEBUG\VC141.PDB" /Gd /TP /analyze- /FC C:\USERS\SEAN GARAY\SOURCE\REPOS\BASPROG2 POKESIM\BASPROG2 POKESIM\MAIN.CPP
